{
  "rules": {
    ".read": true,
    ".write": true,
    "hotel": {
      ".validate": "newData.hasChildren(['name', 'city'])",
      "name": {
        ".validate": "newData.isString()"
      },
      "city": {
        ".validate": "newData.isString()"
      }

    }
  }
}